{
  /* "coc.preferences.hoverTarget": "echo", */
  /* "coc.preferences.enableFloatHighlight": false, */
  "coc.preferences.formatOnType": true,
  "coc.preferences.formatOnSaveFiletypes": [
    "go",
    "typescript",
    "json",
    "jsonc",
    "css",
    "scss",
    "html",
    "Markdown",
    "eliir",
    "javascript"
  ],
  "prettier.eslintIntegration": true,
  "prettier.stylelintIntegration": true,
  "prettier.printWidth": 160,
  "prettier.singleQuote": true,
  "codeLens.enable": true,
  "diagnostic.virtualText": true,
  "diagnostic.checkCurrentLine": true,
  "git.addGBlameToVirtualText": true,
  "signature.target": "echo",
  "snippets.extends": {
    "javascriptreact": [
      "javascript"
    ],
    "typescript": [
      "javascript"
    ]
  },
  "list.normalMappings": {
    "<C-c>": "do:exit"
  },
  "list.insertMappings": {
    "<C-c>": "do:exit"
  },
  "eslint.autoFixOnSave": true,
  "eslint.filetypes": [
    "javascript",
    "typescript",
    "javascriptreact"
  ],
  "languageserver": {
    "dockerfile": {
      "command": "docker-langserver",
      "filetypes": [
        "dockerfile"
      ],
      "args": [
        "--stdio"
      ]
    },
    "bash": {
      "command": "bash-language-server",
      "filetypes": [
        "sh"
      ],
      "args": [
        "start"
      ],
      "ignoredRootPaths": [
        "~"
      ]
    },
    "elixirLS": {
      "command": "/absolute/path/to/elixir-ls/release/language_server.sh",
      "filetypes": [
        "elixir",
        "eelixir"
      ]
    },
    "python": {
      "command": "python",
      "args": [
        "-mpyls",
        "-vv",
        "--log-file",
        "/tmp/lsp_python.log"
      ],
      "trace.server": "verbose",
      "filetypes": [
        "python"
      ],
      "settings": {
        "pyls": {
          "enable": true,
          "trace": {
            "server": "verbose"
          },
          "commandPath": "",
          "configurationSources": [
            "pycodestyle"
          ],
          "plugins": {
            "jedi_completion": {
              "enabled": true
            },
            "jedi_hover": {
              "enabled": true
            },
            "jedi_references": {
              "enabled": true
            },
            "jedi_signature_help": {
              "enabled": true
            },
            "jedi_symbols": {
              "enabled": true,
              "all_scopes": true
            },
            "mccabe": {
              "enabled": true,
              "threshold": 15
            },
            "preload": {
              "enabled": true
            },
            "pycodestyle": {
              "enabled": true
            },
            "pydocstyle": {
              "enabled": false,
              "match": "(?!test_).*\\.py",
              "matchDir": "[^\\.].*"
            },
            "pyflakes": {
              "enabled": true
            },
            "rope_completion": {
              "enabled": true
            },
            "yapf": {
              "enabled": true
            }
          }
        }
      }
    }
  }
}
